                                    20130625 4

                    [0:00] [crosstalk]

                    [0:02] [coughing]

  Woman 1:          [0:06] Hello, Hello. Is anyone here? Whose inside there?

                    [0:08] [crosstalk]

  Woman 1:          [0:10] Is someone in there?

                    [0:12] [baby sounds]

  Woman 2:          [0:13] Maggie Look.

  Woman 1:          [0:17] Help me, help me, help me. Whose inside there? Who do you
                    see? Can you do it?

                    [0:23] [baby sounds]

  Woman 2:          [0:25] Maggie Look.

  Woman 1:          [0:28] What's that? What's that? It is a tank. Chi-chi-chi. Is it
                    good? Baby baby teeth.

  Woman 2:          [0:43] You are hungry huh?

                    [0:44] [crosstalk]

  Child 1:          [0:45] I'm hungry

  Woman 1:          [0:46] Sweetie. Are you all done?

  Child 1:          [baby sounds] [0:48] .

  Woman 2:          [0:50] All done book? All done book. OK.

                    [0:53] [crosstalk]

  Woman 2:          [0:57] You're wrestling this. Oh! Look

  Child 1:          [1:02] I [inaudible 1:15] .

                    [1:03] [laughter]

  Woman 2:          [1:04] You are swimming in your solution.

  Woman 3:          [1:08] All right, come on bub.

  Child 2:          [1:10] Thank you.

  Woman 1:          [1:11] Bye sweetie.

  Child 1:          [baby sounds] [1:13]

  Woman 3:          [1:15] Do you want sticker before you go.

  Woman 1:          [1:17] Do you want a...do you want a sticker?

  Woman 2:          [1:19] Like stickers?

                    [1:20] [crosstalk]

  Woman 2:          [1:21] Stick it on yourself.

                    [1:22] [crosstalk]

  Woman 2:          [1:23] Stick it on your belly, on your arm?

                    [1:26] [crosstalk]

  Woman 2:          [1:30] On your hand.

                    [1:30] [crosstalk]

  Woman 2:          [1:38] Jackson's like "what just happened?"

                    [1:40] [crosstalk]



Transcription by CastingWords
 