                                  2013 07 23 MOS

                    [0:01] [background conversations]

  Researcher:       [0:23] I'm sorry [inaudible 0:00:24]

  Adult:            [0:24] OK

  Researcher:       [0:27] Awesome. Thank you so much. [laughs]

  Adult:            [inaudible 0:00:29] [0:29]

  Researcher:       [0:30] It's OK. Take your time.

                    [0:31] [background conversations]

  Adult:            [inaudible 0:00:43] [0:44] Hi.

  Researcher:       [0:47] Hi.

  Jack:             [0:48] Hi.

  Researcher:       [0:50] What's your name?

  Adult:            [0:50] Hi [inaudible 0:00:50]

  Researcher:       [0:51] My name's David.

  Jack:             [0:53] Hi.

  Adult:            [0:53] Can you say, "Hi, David"?

  Jack:             [0:54] Hi, David.

  Researcher:       [0:55] Good to meet you.

  Adult:            [0:57] He's Jack.

  Researcher:       [0:57] Good to meet you Jack. Make yourself comfortable. You can
                    sit. Make yourself comfortable on the...

  Adult:            [1:00] We can come over here.

  Researcher:       [1:01] Great.

  Adult:            [1:02] Do you want to sit on a little chair? Great. There we go.
                    All right. We get to look...What's that called?

  Researcher:       [1:12] Have you seen one of these before?

  Adult:            [1:14] We have an iPad kicking around.

  Researcher:       [1:15] Great.

  Adult:            [1:16] Try to keep it away, but it doesn't always work.

  Researcher:       [1:19] And he's two years old, you said?

  Adult:            [1:20] Yeah. He's two years and two months.

  Researcher:       [1:22] Great. Awesome. So, I'm a researcher from MIT, and I'm
                    studying how children and adults read and play together with
                    tablets, like this one. I'm going to ask you to read a story
                    together, on this tablet, about a baby duck. Feel free to talk
                    about what you see....

  Adult:            [1:34] We're going to read a duck story.

  Researcher:       [1:36] ...And tap, and swipe, and interact with the story as, as
                    you see fit.

  Adult:            [1:39] OK.

  Researcher:       [1:40] And whenever you get tired or you want to stop, just stop.

  Adult:            [1:42] OK.

  Researcher:       [1:42] Great.

  Adult:            [1:43] Let's see how it goes. What do you think that is? What is
                    it?

  Jack:             [1:49] A ball.

  Adult:            [1:49] It looks like a ball. Should we tap it and see what happens?
                    Tap; tap, tap. What's going on? Do you think something's going to
                    come out of the egg? Should you try again? Do you wanna tap it
                    again?

  Tablet:           [2:05] Tap.

  Adult:            [2:06] Oh, no. What happened?

  Tablet:           [2:08] Tap.

  Adult:            [2:08] Oh, no! It cracked. Can you try again?

  Tablet:           [2:11] Tap. Tap.

  Adult:            [2:12] Whoa

  Jack:             [2:14] Bird.

  Adult:            [2:15] Is a bird coming out? "Help me! Help me!" he says. I want to
                    come out of the egg. Let's see if we can move one of the pieces
                    around. Do you wanna try and move the shell away? Move away, shell.

  Tablet:           [2:30] Baby duck.

  Adult:            [2:32] Who's that? It's a baby bird. Hi, baby bird. His name is
                    baby duck. Now, what should we do? What should we do? What should
                    we do [inaudible 0:02:44] ?

  Tablet:           [2:45] Baby Dee.

  Adult:            [2:47] He says, "Baby Dee." My name is Baby Dee. Hi Baby Dee.

  Tablet:           [2:51] Baby Dee.

  Adult:            [2:53] That's funny.

  Tablet:           [2:54] Baby Dee.

  Adult:            [2:56] Here, let's press the arrow this way. I'm a baby duck. I'm
                    Baby Dee. What do you think he's trying to do? What's he doing
                    here?

  Jack:             [3:09] He's going to get wings.

  Adult:            [3:11] His wings? Here, let's try this one again. I'm a baby duck.
                    What color should I be?

  Jack:             [3:18] White.

  Adult:            [3:19] Should we touch him? He can change colors.

  Tablet:           [3:21] Duck.

  Adult:            [3:22] Whoa. What did he say?

  Jack:             [3:24] Duck.

  Tablet:           [3:27] Duck.

  Adult:            [3:28] Duck. He's telling you what he is.

  Tablet:           [3:33] Duck. Duck.

  Adult:            [3:35] Let's try the arrow. What's it doing? Look at me. I'm white.
                    Where can I play? What's he doing there?

  Jack:             [3:45] Play.

  Adult:            [3:47] What's he sitting on? He's sitting on a rock. That bathtub
                    one was cute. Let's go. Let's go to the rock. Which one is the
                    yellow frog? What is he doing? Where did he go? Oh no.

  Jack:             [4:07] Right there.

  Adult:            [4:08] Right there. He says, "Take me to play." What's the yellow
                    frog doing now?

  Tablet:           [4:14] Frog.

  Adult:            [4:15] Looks like he's running away. Let's try the arrow again.

  Tablet:           [4:19] Frog.

  Adult:            [4:20] He said, "Frog." I want to play. What can ducks do? What do
                    ducks do? What can we see ducks do?

  Jack:             [4:31] Playing.

  Adult:            [4:32] Playing down by the...

  Jack:             [4:34] Pond.

  Adult:            [4:34] Pond. Do you think he wants to jump in? Help him...Help him
                    do that. You get in that pond. Oh, splish, splash, dive, run, baby
                    duck have fun.

  Tablet:           [4:52] Splash.

  Adult:            [4:54] Did you hear that? Try that one.

  Tablet:           [4:57] Splash.

  Adult:            [5:00] It looks like he's going to jump in the pond. Whoa! What
                    happened? He got all wet. I'm all done. That was fun. I'm hungry.
                    What do ducks eat? Do you know what ducks eat?

  Jack:             [5:17] Bread. Eat water.

  Adult:            [5:18] They eat water. Oh, look he wants to eat some bugs. Which
                    bugs does he want? Do you want to help him eat some bugs? OK.
                    Should we tap a bug? Bring a bug over to him. Oh! He ate them all,
                    "I want more." What are those guys? Do you want the baby bugs?

  Jack:             [5:45] Yeah.

  Adult:            [5:46] OK, let's bring them over. Oh, that's pretty funny, hmm? "I
                    feel funny?" Why is that? What's he doing in that drawing? That's a
                    microphone.

  Jack:             [6:02] Microphone.

  Adult:            [6:05] It's a microphone. It's taping your voice. What do you think
                    he looks like here? Do you think he looks a little bit [inaudible
                    0:06:15] ? What do you think he wants to do?

  Jack:             [6:19] Eat.

  Adult:            [6:20] Eat. Maybe.

  Jack:             [6:22] That's a microphone.

  Adult:            [6:25] That's a microphone.

  Jack:             [6:28] Touch it.

  Adult:            [6:30] That's a microphone.

  Jack:             [6:31] A microphone.

  Adult:            [6:32] We don't want to touch it, because then we'll have lots of
                    noise. Look, "It was your first big day. Let's tuck you into bed.
                    How did he go to sleep?"

  Jack:             [6:41] Nightie night baby.

  Adult:            [6:42] Oh, "Nightie night." OK. Let's help the baby duck go to
                    sleep. Lay down. Right? See, this is his blanket. You want to move
                    it over, and tuck him in bed, and then say, "I'm a duck. A white
                    duck. I play and run all day. I eat bugs, two, three, four. How can
                    I sleep? Well, just one thing more."

  Jack:             [7:05] Nightie night.

  Adult:            [7:06] Nightie night. [laughs] OK, let's sing a song. Bird and bee,
                    frog. Do you hear the phone?

  Jack:             [7:15] No.

  Adult:            [7:17] Go to sleep baby duck. Go to sleep baby duck. Good night
                    little one. Go to sleep. What's he doing now?

  Jack:             [7:25] Sleeping.

  Adult:            [7:26] Sleeping. The end. Yay.

  Researcher:       [7:32] How did it go?

  Adult:            [7:33] He wants the microphone.

  Researcher:       [7:34] That was great. So, we're studying how lots of people are
                    reading with these things now, like you said with the microphone
                    setup.

  Adult:            [7:40] Yeah, we read a couple of them. I used them when they came
                    out. There's a Sesame Street one.

  Researcher:       [7:45] Oh nice. There's a Grover one that's really good.

  Adult:            [7:47] It's Grover and Elmo and they're turning pages in a book.

  Researcher:       [7:51] "Monster at the End of the Story."

  Adult:            [7:52] Yeah, yeah. That's the older one, yeah, yeah.

  Jack:             [7:56] I want that one, Mommy.

  Adult:            [7:57] You like that one?

  Researcher:       [7:57] So we want to compare this kind of reading to a traditional
                    book reading...

  Adult:            [8:01] Yeah.

  Researcher:       [8:01] ...and try to see...You were doing some great great reading
                    behaviors like you were asking a lot of questions. You were
                    [inaudible 0:08:06] . But there are [inaudible 0:08:07] cases where
                    this doesn't happen in the homes. So we're trying to see if we can
                    design books which encourage more talking between parents and kids.

                    [8:15] So, like an example might be a character that was there and
                    asking one of the questions you asked, "What can ducks do?" So,
                    that's one.

  Adult:            [8:21] Yeah, because in a traditional book you might be tempted to
                    just walk through, to not do too much.

  Researcher:       [8:28] That's what we're trying to learn about and see what people
                    think...

  Adult:            [8:30] Well, that's a good point, yeah. We think of screen themes,
                    making up things they can do.

  Researcher:       [8:35] Yeah I mean in some cases...

  Adult:            [8:36] Also...

  Researcher:       [8:37] In some cases, you know, parents want their kids to play
                    with them, maybe while they're making dinner you're not going
                    to...So, if there's something we can do that can make it
                    more...More engaging.

  Adult:            [8:43] Yeah. It was a lot more ambiguous than the other ones I'm
                    used to. I wasn't even sure. Like, "OK, what am I supposed to do
                    here?" So, it opens up more...What do you say?

  Researcher:       [8:52] Did you get him a sticker?

  Adult:            [8:54] Do you want to say, "Thank you," to David.

  Jack:             [8:55] Thank you.

  Adult:            [8:57] Good job. What's that?

  Researcher:       [8:58] Good. Did you like the sticker?

  Jack:             [8:59] Yeah.

  Adult:            [9:01] It says, "MIT." Where should we put it? Whoa. [inaudible
                    0:09:09]

                    [9:10] [background conversations]

  Researcher:       [9:15] Do you have any more questions about anything?

  Adult:            [9:16] No. That's really cool. I never really thought about them as
                    useful in that way. That's cool.

  Researcher:       [9:21] We're trying.

  Adult:            [9:22] This one's like it's really, there's so much going on. It's
                    like, "I don't even know. There are so many options."

  Researcher:       [9:27] Yeah, exactly.

  Adult:            [9:30] That's really true. OK. Thanks.

  Researcher:       [9:34] Sure. Thank you for your participation. [inaudible 0:09:43]
                    recording. So, one of you can handle this one.

  Adult:            [9:46] OK.

                    [crosstalk]

  Researcher:       [9:49] Do you have any questions about that?

  Adult:            [9:50] No. I'm guessing you want us to do a story on a computer.
                    You want to check it out?

  Researcher:       [9:56] My name's David. What's your name?

  Sarah:            [9:58] Sarah.

  Researcher:       [9:59] It's nice to meet you, Sarah. And, who's this?

  Sarah:            [10:02] This is Abby.

  Researcher:       [10:03] Hi, Abby. And, is this your mum?

  Sarah:            [10:07] Yes.

  Researcher:       [10:08] Great. Nice to meet you. So, I'm a researcher from MIT, and
                    we're doing a study about how adults and kids read together on e-
                    books. So...have you seen one of these before? Have you seen
                    something like this before?

  Child:            [10:21] No.

  Researcher:       [10:22] It's a tablet computer. You can touch the screen and you
                    can swipe on the graphics, and touch things and stuff, and interact
                    with the story.

                    [10:30] I'm going to ask you to read together, and talk about what
                    you see, and like I said, just go ahead and stop if you get bored.

  Adult:            [10:35] Great.

  Researcher:       [10:36] Do you have any questions?

  Adult:            [10:37] No.

  Researcher:       [10:38] Great.

  Adult:            [10:38] So, I take it from this that I should touch the yellow
                    buttons. Would you like to do it? OK. You can tap that. Do you want
                    to do that, or you want me to do it?

  Child:            [10:51] I want to do that.

  Adult:            [10:52] OK. [inaudible 0:10:53] your finger, then. Do you want me
                    to read these words?

  Researcher:       [11:01] If you like.

  Adult:            [11:02] It says, "Tap, tap, tap. Pop." What do you think we should
                    do next?

  Child:            [11:08] Tap that.

  Adult:            [11:10] OK.

  Tablet:           [11:11] Tap.

  Child:            [11:14] Like that?

  Adult:            [11:15] What do you think it is?

  Child:            [11:17] I don't...not know.

  Adult:            [11:20] You want to try one of these arrows and see what happens?
                    Neat. It says, "Hello, hello, is anyone here? Tap me, show me
                    someone is there."

                    [11:39] What do you think that is?

  Child:            [11:40] I do not know.

  Tablet:           [11:45] Baby Dee.

  Adult:            [11:47] It says, "You are a baby duck. Your name is Baby Dee."

                    [11:53] Want to try an arrow? I'm curious to see what happens if we
                    do that. I am a baby duck.

  Researcher:       [12:00] I'm keeping an eye on Allie, and she's stepping out...yeah.

  Adult:            [12:02] Oh. Oh, OK. Sorry.

  Researcher:       [12:03] Yeah, that's OK.

  Adult:            [12:04] That's it for now.

  Researcher:       [12:05] OK, great.

  Adult:            [12:06] Thank you.

  Researcher:       [12:07] Thank you.

  Child:            [12:08] What is that?

  Adult:            [12:10] Do you want to talk to him about what you see?

  Researcher:       [12:11] Yeah, you can keep going if you like.

  Child:            [12:13] Is that a duck?

  Tablet:           [12:19] Baby.

  Child:            [12:32] What's it doing? What's it doing, that toy?

  Researcher:       [12:37] Keep going. What happens if you touch these colors up here?

  Tablet:           [12:45] Yellow.

                    [12:47] [background conversations]

  Child:            [13:43] What is this? How do you do this?

  Researcher:       [inaudible 0:13:51] Hey, Brian, would you mind asking her to come
                    back? She has to stay on this side over there. She just [inaudible
                    0:14:02] [13:50]

  Brian:            [14:02] This side?

  Researcher:       [14:03] Yeah. You're touch the blue Frog. Which one's the Blue
                    Frog?

  Brian:            [14:09] This side?

  Researcher:       [14:10] Yeah. Over here, yeah. I think your mum...Your mum is
                    calling you. Thank you. You want a sticker before you go?

  Child:            [14:23] Mm-hmm.

                    [14:28] [background conversations]

  Researcher:       [14:45] Sorry. I just, I realized that, "Oh, we're not supposed to
                    be..."

  Brian:            [14:48] I was wondering...

  Researcher:       [14:49] Yeah.

  Brian:            [14:53] So, one other thing. So, as far as we're...

                    [14:57] [background conversations]

  Researcher:       [laughs] [15:20]

  Adult:            [15:23] She loves the iPad.

  Researcher:       [15:24] Oh, she has an iPad?

  Adult:            [15:25] We let her watch it for [inaudible 0:15:27] half an hour a
                    day.

  Researcher:       [15:28] Oh, that's good. [laughs]

  Adult:            [inaudible 0:15:32] [15:31]

  Researcher:       [15:33] She'll be there all day. How old is she? How old are you?

  Adult:            [15:40] Two.

  Researcher:       [15:41] Two.

  Adult:            [15:48] Today's the 23rd, right?

  Researcher:       [15:49] Yes, ma'am. OK. Thank you so much. So, I'm going to ask you
                    to read a story together on this tablet. And you can touch the
                    pictures, and you can play with the...the, the things you see. And,
                    if you want to stop, just stop. OK? Great.

                    [16:19] And feel free to talk about what you see.

  Adult:            [16:20] OK. Tap, tap, tap. It's an egg.

  Tablet:           [16:23] Tap. Pop.

  Adult:            [16:24] Tap, tap, tap. Pop. Hello, hello, is anyone there? What's
                    happening? Can you tap? What do you see? What's there?

  Sophia:           [16:38] What is it?

  Adult:            [16:39] What is it? Is it a chicken? Huh? OK, let's...tap, tap,
                    tap. [gasps] It's a baby duck. His name is Baby Dee.

  Sophia:           [16:53] Baby Dee.

  Adult:            [16:54] Yeah. Look, where are his eyes? Eyes.

  Tablet:           [16:59] Baby Dee. Baby Dee. Baby Dee. Ba...

  Adult:            [17:07] I am a baby duck. I am a baby...

  Tablet:           [17:10] Baby Dee.

  Adult:            [17:12] Where are his feathers?

  Tablet:           [17:13] Baby Dee. Baby Dee. Baby Dee.

  Adult:            [17:19] OK, do you want to turn the page? What do we do? Hit that
                    arrow. Good job. You did it too many. Let's go back. One more. Go
                    to the tub. Rub, rub, rub. What is he doing?

  Sophia:           [17:42] He's taking a bath.

  Adult:            [17:44] Is he taking a bath? He likes the bath? Do you like taking
                    a bath?

                    [17:50] Red, yellow, and blue. Red. Where is the yellow? Where is
                    yellow? [gasps] Now the water is...?

  Sophia:           [18:03] Mm?

  Adult:            [18:04] Red. Do you want to tap on the blue? Tap on the blue.

  Tablet:           [splash] [18:09]

  Adult:            [18:12] Oh, this is...White, yellow, and blue. Where is the blue?

  Tablet:           [18:20] Orange.

  Adult:            [18:21] Oh, you know what? I think red and yellow turn...brown. Do
                    the blue.

  Tablet:           [splash] [splash] [18:28]

  Adult:            [18:35] Do you like it? Yellow and the blue? Where is blue?

  Sophia:           [18:42] Here.

  Tablet:           [splash] [18:43]

  Adult:            [18:44] That is white. Blue is here.

  Tablet:           [splash] [18:49]

  Adult:            [18:53] What color are you? Are you blue? OK, turn the page. Good.
                    Look at me, I am blue. Are we blue?

  Sophia:           [19:10] Yeah.

  Adult:            [19:11] What color are you? OK, turn the page. I am a blue duck.
                    Where can I play? Is he playing? Go to the Yellow Frog. Tap, tap,
                    tap. No, you have to go forward. He will find the way. Where is the
                    Green Frog?

  Sophia:           [19:42] Yellow.

  Adult:            [19:43] Yellow. White. OK, find frog, take me to play. Swim,
                    splash, dive. I am done. That was fun. One more. Just one tap. Is
                    he hungry? What do ducks eat?

  Sophia:           [20:13] Rice.

  Adult:            [20:13] Rice?

  Sophia:           [20:14] Rice.

  Adult:            [20:18] Sweetie, tap, tap, tap. Tap, tap, tap. One...One tap. Good
                    job. Ducks eat bugs. Oh, one bug, two bugs, three bugs. How many?
                    Can we count them? One, two, three, four, five, six, seven, eight,
                    nine. OK. Tap one more time.

  Researcher:       [20:50] Before you go, can I...?

  Adult:            [20:52] Oh, sure. Oh, he's eating it.

  Sophia:           [20:55] Yeah.

  Adult:            [20:56] You want to do one before you go?

  Tablet:           [20:58] Two.

  Adult:            [21:00] Yum, yum, yum, yum, yum. Can you try?

  Sophia:           [21:03] Yes.

  Adult:            [21:04] You can try. I'll try one more time.

  Sophia:           [21:07] One...

  Adult:            [21:10] Do you want me to?

  Researcher:       [21:12] I think that's the best for both of them.

  Adult:            [21:14] OK.

  Tablet:           [21:16] Four.

  Adult:            [21:18] OK. Now we can...do you want him to eat another one? Yes, a
                    little bit more. "Yay. Yum, yum, yum, yum, yum. Yum, yum, yum, yum,
                    yum."

  Tablet:           [21:30] Six.

  Sophia:           [21:33] Feed.

  Adult:            [21:34] He's still hungry. He wants to eat this one.

  Tablet:           [21:40] Seven.

  Sophia:           [21:42] You touch it.

  Adult:            [21:42] I can do it? OK, thank you.

  Tablet:           [21:45] Eight.

  Adult:            [21:45] You want to do the last one? Your turn.

  Sophia:           [21:54] You do it.

  Adult:            [21:55] You can try. OK, I'll help you. Yum, yum, yum, yum, yum. I
                    want more. More, more, more, more, more. OK, Baby Dee, you can eat
                    four more and we will see. OK. Where are they?

  Sophia:           [22:24] Another one.

  Tablet:           [burps] [22:25]

  Adult:            [22:26] Oh. Did he say, "Excuse me?"

  Tablet:           [yawn] [22:29]

  Adult:            [22:30] My eyes feel funny. Why is that? He's tired. He's tired. Is
                    he taking a nap? You are tired, Baby Dee. It was your first big
                    day. Let's tuck you in bed, lay down your head. OK. That's the
                    blanket. Put the blanket.

  Tablet:           [23:00] Tuck.

  Adult:            [23:04] You want to try it?

  Tablet:           [23:06] Tuck.

  Adult:            [23:07] Let's try it. OK. I'm a duck, a blue duck. I can play and
                    run all day. I eat bugs. How can I sleep? Just one thing more. One
                    more, then go to sleep, Baby Dee. [inaudible 0:23:28] Baby Dee.
                    Good night, little one, till a new day comes. Good night. You want
                    to click?

  Sophia:           [inaudible 0:23:38] [23:38]

  Adult:            [23:39] And what does it say?

  Sophia:           [23:41] The end.

  Adult:            [23:43] The end. Say, "Bye-bye."

  Sophia:           [23:45] Bye-bye.

  Researcher:       [23:47] Thank you.

  Adult:            [23:47] Thank you.

  Researcher:       [23:48] Can I give her a sticker?

  Adult:            [23:49] Yeah, sure. Do you want a sticker?

  Researcher:       [23:51] So, we're studying how people use things -- books like this
                    -- versus real books...

  Adult:            [23:58] OK.

  Researcher:       [23:59] Or physical books. And we're...

  Adult:            [24:00] ...And, and, do you think...Do you think the iPad is, is OK
                    instead of, like, real books?

  Researcher:       [24:05] We think...

  Adult:            [24:05] I the question, right?

  Researcher:       [laughs] [24:06] It's a big question, and we don't know the answer.
                    That's why we're trying to study.

  Adult:            [24:10] Ah.

  Researcher:       [24:10] So, what we're doing is, we're listening to the words that
                    you're using as you're communicating -- so, you asked her a lot of
                    questions like, "What do you think this does?" or "What do
                    you...what happens when you mix these colors?"

                    [24:20] And we want to see if we can design a book like that, for
                    cases where parents can't read to their kids, or where parents
                    are...then maybe the book can help them ask these kinds of
                    questions also.

  Adult:            [24:30] I mean, I, I have to say that I wasn't really a big
                    believer of, like, the iPads.

  Researcher:       [24:36] Yeah.

  Adult:            [24:36] But I...they do learn. My sister gave it to her for her
                    second birthday.

  Researcher:       [laughs] [24:40]

  Adult:            [24:43] I don't have an iPad, but she does.

  Researcher:       [24:46] It's, it's amazing...

  Adult:            [24:47] And, and it's how they learn so much.

  Researcher:       [24:49] And, I was watching when you said, "Turn the page," too.
                    That that, that was...so she knows how to...

  Adult:            [24:52] Yes. Because that's the iPhone.

  Researcher:       [laughs] [24:54] So, they know. They certainly do.

  Adult:            [24:56] At like, two, she...she's better than my husband.

  Researcher:       [laughs] [24:58] It's good. So, they're not going away, so we just
                    want to make sure we're making games that are going to be really
                    educational and better for kids. Thank you so much.

  Adult:            [25:06] Thank you.

  Researcher:       [25:06] Did you get one of these papers, to show you what...?

  Adult:            [25:10] Oh, I did.

  Researcher:       [25:11] Oh, you got one. OK, very good. Thank you so much.

  Adult:            [25:13] Thank you so much.

  Researcher:       [25:14] Bye, Sophia. Good to meet you. Thank you.

  Adult:            [25:15] Thank you.

  Researcher:       [25:16] Bye.

  Researcher:       [25:17] Oh, hi.

  Adult:            [25:18] Hi. Hello.

  Researcher:       [25:19] Hey, do you want to participate?

  Adult:            [inaudible 0:25:20] [25:20] the story.

  Researcher:       [25:20] Great. Are you her legal guardian?

  Adult:            [25:23] Yes, her mother.

  Researcher:       [25:23] Do you mind if I ask you to sign a consent form? Great. So,
                    we're doing a study today involving reading on this...on the
                    tablet.

  Adult:            [25:34] OK.

  Researcher:       [25:37] We're going to record audio and video, but it's anonymous
                    and just for our research purposes.

  Adult:            [25:41] OK.

  Researcher:       [25:42] And, if you want to stop things, for her to stop the...Or
                    we could...Let it just go. If you want to stop, or she gets bored
                    or you get bored, then you can always end the study.

  Adult:            [25:52] OK.

  Researcher:       [25:53] So...take your time. Don't feel rushy.

  Adult:            [26:07] Want to see? After this girl's done, can I read to you?
                    We're going to read on an iPad. OK. After...when she...Has she
                    [inaudible 0:26:18 to you?

  Researcher:       [26:19] Yes.

  Adult:            [26:19] OK.

  Researcher:       [26:19] Yes. Hi. What's your name? Good to meet you.

                    [26:24] [background conversations]

  Researcher:       [26:37] Oh, I didn't think about that for...yeah. Yeah. No, we'll
                    fix it. We will delete any data that was taken before.

  Researcher:       [inaudible 0:26:44] [26:44]

  Researcher:       [26:45] Thank you so much.

  Adult:            [26:46] No problem.

  Researcher:       [26:47] Feel free to make yourself comfortable here, or here, or
                    wherever you want to sit.

  Adult:            [26:51] You have to sit on the chairs.

  Researcher:       [27:03] So, I'm a researcher from MIT.

  Adult:            [27:04] OK.

  Researcher:       [27:04] Like I said, we're studying how adults and kids read
                    together on devices like this.

  Adult:            [27:08] OK.

  Researcher:       [27:09] Have you seen something like this before?

  Adult:            [inaudible 0:27:10] [27:10]

  Researcher:       [27:11] No. This is a tablet computer.

  Adult:            [27:12] It's an iPad.

  Researcher:       [27:13] It's like an iPad. So, you can touch the pictures, you can
                    swipe on the words, and you can interact with the things they see
                    on the screen. And feel free to talk about the stuff that you see.

  Adult:            [27:21] And is she controlling...?

  Researcher:       [27:22] I'm asking you to read it together.

  Adult:            [27:24] OK.

  Researcher:       [27:24] So, whatever that means.

  Adult:            [27:25] OK.

  Researcher:       [27:25] Great.

  Adult:            [27:27] Pete, what does it want you to do? Is that a hand? Yeah,
                    touch that.

  Tablet:           [crunch] [27:33]

  Adult:            [27:34] Tap, tap, tap. Pop. Yes, [inaudible 0:27:41] egg. Great. Do
                    you want to...It's the same as the other stories. You can either go
                    forward or you can tap on a picture to see...

  Tablet:           [27:50] Tap.

  Child:            [27:53] It cracked.

  Tablet:           [27:55] Tap. Tap. Pop.

  Adult:            [28:04] It says, "Hello, hello, is anyone here? Tap me, show me
                    someone's there."

  Tablet:           [crunching sound] [28:08]

  Adult:            [28:11] Help me, help me. Help me be free. Tell me, tell me, what
                    do you see? I think we need to try again. You...You are a baby
                    duck. Your name is Baby Dee.

  Child:            [inaudible 0:28:33] [28:33]

  Tablet:           [28:37] Baby Dee.

  Child:            [28:39] Baby.

  Adult:            [28:42] Can you go to the next page? I am a baby duck. I am Baby
                    Dee.

  Child:            [28:51] Duck.

  Adult:            [28:55] I am a baby duck. What color can I be?

  Child:            [29:00] White.

  Adult:            [29:02] What's that? Touch that.

  Tablet:           [29:05] Duck.

  Adult:            [29:08] Maybe this one. Go to the tub. Rub, rub, rub. Red, yellow,
                    blue. What color are you?

  Child:            [29:18] White.

  Adult:            [29:19] Touch this.

  Tablet:           [splash] [29:22]

  Adult:            [29:23] White.

  Child:            [29:29] Blue.

  Adult:            [29:29] Blue.

  Tablet:           [29:31] Green.

  Adult:            [29:32] Green. Brown. Why is it brown?

  Child:            [inaudible 0:29:36] [29:36]

  Tablet:           [splash] [29:40]

  Adult:            [29:44] What happens when you mix blue and yellow?

  Tablet:           [29:49] Green.

  Adult:            [29:51] All right. Now, what happens when you mix green with red?

  Tablet:           [29:56] Brown.

  Child:            [30:01] Where's white.

  Adult:            [30:01] That's white.

  Tablet:           [splash] [30:02]

  Adult:            [30:12] OK.

  Tablet:           [30:13] Orange. [splash]

  Child:            [30:19] It changed it back white. Yikes.

  Adult:            [30:21] Mm-hmm.

  Tablet:           [splash] [30:23]

  Child:            [inaudible 0:30:24] [30:24]

  Tablet:           [30:26] Orange. Brown.

  Adult:            [30:33] I think once it's brown, it's just brown. You need the...To
                    return to white.

  Tablet:           [splash] [30:37]

  Adult:            [30:39] Add more from there.

  Tablet:           [30:42] Orange.

  Child:            [inaudible 0:30:43] [30:43] white.

  Adult:            [30:45] Yeah. Look at me. I am white.

  Child:            [31:02] White.

  Adult:            [31:03] Mm-hmm. I am a white duck. Where can I play?

  Tablet:           [31:14] Duck.

  Child:            [31:15] Duck.

  Adult:            [31:20] Go to the blue frog. He will find the way. Blue frog, take
                    me to play. I want to play. What can ducks do?

  Child:            [31:44] Swim.

  Adult:            [31:48] Swim, splash, dive, run. Baby D go have fun.

  Child:            [31:55] What's that?

  Adult:            [31:56] I don't know. Touch it. I am done. That was fun.

  Child:            [32:15] He's wet.

  Adult:            [32:16] He is. I am hungry. What do ducks eat?

  Child:            [32:21] Sea food.

  Adult:            [32:25] Ducks eat bugs. One bug, two bugs, three bugs four. Eat
                    nine bugs. Do you want more? You have to give him nine bugs. Can
                    you give him [inaudible 0:32:46] ? Anyway, give me other [inaudible
                    0:32:53] .

                    [32:55] [background conversations]

  Child:            [33:24] Can I do that?

  Adult:            [33:25] OK.

                    [33:26] [background conversations]

  Tablet:           [33:31] Six.

  Child:            [inaudible 0:33:34] [33:34]

                    [33:35] [background conversations]

                    [33:42] Tablet" eight.

                    [33:43] [background conversations]

  Adult:            [33:58] I want more. OK. OK Baby D, you can eat two bugs.

  Child:            [inaudible 0:34:11] [34:10]

  Adult:            [34:11] I don't know, just two. OK.

  Child:            [inaudible 0:34:21] [34:21]

  Adult:            [34:22] Everything [inaudible 0:34:22] eating. "My eyes feel funny.
                    Why is that?" His eyes feel funny. You're tired Baby D. It's your
                    first big day. Let's tuck you in bed. Lay down your head. I am a
                    duck, a white duck. I can play and run all day. I eat bugs two,
                    three, four. How can I sleep? Just one thing more?

  Child:            [34:57] What?

  Adult:            [34:58] I don't know. OK Baby D, we will sing you a song. Bird, bee
                    and Frog, all sing along. Go to sleep Baby D. Not a peep Baby D.
                    Goodnight little one till the new day come. The end. Uh-huh. We
                    don't have to go all the way back.

                    [35:42] [background conversations]

  Child:            [35:53] That's the only story?

  Adult:            [35:55] That's the only story.

  Researcher:       [35:57] Thank you so much. Did you like it? Did you like the story?
                    Can I ask you a couple more questions?

  Adult:            [36:01] Yeah.

  Researcher:       [36:02] First can I give you a sticker? How many books do you read
                    a week usually?

  Adult:            [36:15] How long is a week? Do you know that?

  Child:            [36:19] Six, five days?

  Adult:            [36:20] Close.

  Researcher:       [36:22] So you read a lot of books at home or at school?

  Child:            [36:25] I don't go to school.

  Researcher:       [36:26] OK. How old are you?

  Child:            [36:28] Four.

  Researcher:       [36:29] Nice, and do you use the iPad a lot?

  Adult:            [36:39] Do you use the iPad a lot? OK.

  Researcher:       [36:42] So, we're actually studying how adults and kids read on
                    this versus traditional books, and we're watching and listening to
                    the behaviors that you're doing as you're reading them. So like
                    when you're asking her questions, or when you're asking about
                    colors.

                    [36:56] That kind of thing is really informative and helpful for
                    cases where parents don't know how to read to their kids. So we
                    want to see if we can invite some of these sort of behaviors by
                    designing books that sort of encourage them.

  Adult:            [37:09] Oh, OK. I'm a kindergarten teacher.

  Researcher:       [37:12] Oh, interesting.

  Adult:            [37:14] Technically this is my job, but I do sometimes find like,
                    with her it's like, you just want to get through it.

  Researcher:       [37:20] Yeah.

  Adult:            [37:21] Cause you know when you are teaching you have to be like,
                    "What does this say."

  Researcher:       [37:25] Very good.

  Adult:            [37:26] And you try and really engage, and with her I'm like...

  Researcher:       [37:28] Yeah. So we don't ever think that this thing is going to
                    replace traditional books, but in cases where, for example we've
                    got [inaudible 0:37:36] in Ethiopia [inaudible 0:37:38] . They just
                    don't have this sort of training or behavior understanding of how
                    to do this sort of thing.

                    [37:43] So, if they're going to be using these things anyway you
                    just want to make sure that the things that we're designing for
                    them...

  Adult:            [37:47] Right.

  Researcher:       [37:48] ...actually [inaudible 0:37:48]

  Adult:            [37:49] So that is not a Trade Book is it?

  Researcher:       [37:51] Ah, Trade Book?

  Adult:            [37:52] It's not...

  Researcher:       [37:53] No. This is something we developed.

  Adult:            [37:54] OK

  Researcher:       [37:55] Yeah. Yeah, so I mean in terms of...There's certainly a lot
                    of stuff out there in these app stores that are [inaudible 0:38:00]
                    pretty good books. What's special about this is that it's...You put
                    a lot of data collection in them, so every [inaudible 0:38:06] .

  Child:            [inaudible 0:38:07] [38:06]

  Researcher:       [38:13] Do you have any questions about our research, or concerns
                    at all [inaudible 0:38:15]

  Adult:            [38:15] No it's very interesting. So I have been out of teaching
                    for a couple of years with her. But before I started teaching it
                    was just when the smart boards were [inaudible 0:38:24] , but it
                    was before iPad.

  Researcher:       [38:24] Uh-huh.

  Adult:            [38:27] But I think iPad for kinder level, it wasn't revolutionized
                    how we do it center [inaudible 0:38:31]

  Researcher:       [38:31] That's awesome. Do you think that it's an issue or, or a
                    matter of like keeping kids occupied basically [inaudible 0:38:38]

  Adult:            [38:38] Well, yeah. So in kinder, you [inaudible 0:38:41] we teach
                    reading and writing, but you have to do it in small groups. There's
                    no way...

  Researcher:       [38:45] Yeah. Yeah.

  Adult:            [38:46] That means if you got 15 kids in a room...

  Child:            [inaudible 0:38:49] [38:48]

  Adult:            [38:50] Yeah. So, but just in terms of like even listening center
                    there's so much to do with, and then, I don't know. Probably seen
                    [inaudible 0:39:00] program [inaudible 0:39:02] ..

  Researcher:       [39:04] Yeah.

  Adult:            [39:04] Depending on where kids touch. It records like their
                    responses, how many times it took them to answer the question.

  Researcher:       [39:10] Yeah. Exactly right. And so, so as you know the more access
                    that kids have to language in their homes, or at school it
                    generally sort of improves the way that they read.

  Adult:            [39:20] Right.

  Researcher:       [39:20] How their [inaudible 0:39:21] develop. Whether it's a
                    skill.

  Adult:            [39:23] Right, and I work primarily UBLO

  Researcher:       [39:24] Oh wow. Yeah.

  Adult:            [39:25] So again, it generally would be huge to be able to have,
                    even five iPads like in my classroom.

  Researcher:       [39:30] Oh wow. Cool. Yeah.

  Adult:            [39:31] You know what I mean?

  Researcher:       [39:31] Yeah.

  Adult:            [39:31] Obviously I will need some training and so, to know the
                    best way to utilize it. Obviously there's little lab time
                    [inaudible 0:30:24] how to use. It's pretty intuitive for them, but
                    that [inaudible 0:39:42] .

  Researcher:       [39:42] Yeah, and I think vise versus. i think in [inaudible
                    0:39:45] having teachers inform researchers and developers about
                    how they...

  Adult:            [39:50] Right.

  Researcher:       [39:51] ...What's actually happening.

  Adult:            [39:52] Right, so right. Give it to the teachers, throw it in the
                    classroom as an experiment, they'll run the kids with it, and
                    [inaudible 0:39:58]

  Researcher:       [39:58] Right. Very cool.

  Adult:            [39:59] So right. I'm excited. I'm headed back into...She's almost
                    [inaudible 0:40:02] so...

  Researcher:       [40:03] Oh wow. [laughs]

  Adult:            [40:03] I'm sure it would be a whole new feel.

  Researcher:       [laughs] You have some [inaudible 0:40:07] info about what we're
                    doing. [inaudible 0:40:09] [40:06] for sure.

  Adult:            [40:08] Thank you. That's great.

  Researcher:       [40:10] Yeah. I really appreciate your time. It's super helpful.
                    Thank you.

  Adult:            [40:12] Your welcome. Yeah.

  Researcher:       [40:14] Hi. You want to read a book? Is your mummy or daddy here?

                    [40:22] [background conversations]

  Researcher:       [40:29] Oh, you're ready to fill the form? [inaudible 0:30:24] Do
                    you want to bring her over here you can read a book together?
                    Where's the baby-sitter? Oh, the woman with the black hair. If you
                    bring her over here, you can read a book together.

                    [40:44] [background conversations]

  Adult:            [41:07] Help me, help me, help me be free. Do you discuss
                    [inaudible 0:41:11] You help him. Oh. You are a baby duck. Hello,
                    hello. Oh [inaudible 0:41:26] Oops. You're helping baby duck. Oh,
                    good job. [laughs] Do you want to go back? All the way? Do you like
                    it? OK, let's go back.

  Tablet:           [41:45] Tap. Tap. Tap.

  Adult:            [41:49] Oh, hello, hello. Help me; show me, someone is in here.
                    Help me. Tap. You know what tap is? Like this. You got it
                    [inaudible 0:42:00] .

  Child:            [42:03] I want to go in the story

  Adult:            [42:05] Oh, you want to go further in the story. OK. You are a baby
                    duck. Your name's Baby D. I'm a baby duck. [inaudible 0:42:14] . Go
                    to the yellow frog. You will find the way. Where's the yellow frog?
                    No. No. No. No. No. No. [laughs] Take me. Oh. Yellow frog, take me
                    to play. I'm done. That was fun. I'm hungry. Ducks eat bugs. One
                    bug, two bugs, three bugs. You want to feed the bugs to duck. Oh,
                    look he's eating. [inaudible 0:43:05]

                    [43:06] [background conversations]

  Adult:            [43:31] Mm, yum, yum, yum, yum. I want more. OK Baby D, you can eat
                    five bugs, then you'll see. You have to give him nine bugs. You are
                    tired Baby D. It was first big day. Let's tuck you in bed.
                    [inaudible 0:43:58] . Oh, goodnight. Oh you so [inaudible 0:44:05]
                    . Go to sleep Baby D.

                    [44:14] Did you like the story? I like the story. So, that's upon
                    the iPad to Brad.

  Research:         [44:22] Thank you so much.

  Adult:            [44:23] Can you say thank you Brad?

  Research:         [44:25] May I ask you a couple questions before you go? Yeah? Thank
                    you. What did you like best about the story? Anything?

  Adult:            [foreign language] [44:34]

  Child:            [44:35] Nothing.

  Research:         [44:36] Nothing?

  Adult:            [44:37] You didn't like the story?

  Research:         [44:39] What did you like least about the story?

  Adult:            [foreign language] [44:41]

  Child:            [44:43] Nothing.

  Research:         [44:44] Nothing?

  Child:            [44:45] Nothing [inaudible 0:44:45]

  Adult:            [44:48] Maybe we should do it in Portuguese. She's a second
                    language learner.

  Research:         [44:51] OK.

  Adult:            [foreign language] [44:53]

  Child:            [45:01] Nothing, nothing.

  Adult:            [45:04] She's such a liar.

  Research:         [laughs] [45:06]

  Adult:            [45:08] Are there any other questions? Sure, but yeah, you guys can
                    leave if you want. There's a few more questions. How often do you
                    read books at home or at school?

  Adult:            [foreign language] [45:17]

  Researcher:       [45:22] Often?

  Adult:            [45:23] Every day.

  Researcher:       [45:23] Everyday. OK.

  Adult:            [45:24] Twice a day.

  Researcher:       [45:25] OK, and do you usually read by yourself, or with other
                    people?

  Child:            [45:32] By myself.

  Researcher:       [45:33] By yourself? OK and how old are you?

  Child:            [45:37] Four.

  Researcher:       [45:38] Four years old? Wow. OK.

  Adult:            [45:41] All-righty.

  Researcher:       [45:42] And I have two questions for you.

  Adult:            [45:43] OK.

  Researcher:       [45:44] What did you think about the story?

  Adult:            [45:46] Um, I think...I'll be sincere.

  Researcher:       [45:50] Yeah, no. Please do.

  Adult:            [45:51] She uses the iPad. I like it. I think that it's
                    interactive. I think that it's nice that she's helping the chick
                    to, to come to life. I think that that's very exciting. What I
                    found a little scary is that the bugs were alive as they were
                    eating. That was kind of a detail that...

  Researcher:       [46:07] I can understand that.

  Adult:            [46:09] You know, but I think it's nice. It is, it is interesting.
                    The more interactive I think it's best. I think the more the kid is
                    in control. I think...

  Researcher:       [46:20] Yeah, she definitely was in control.

  Adult:            [46:21] Yeah, and I think that is good. And it takes some getting
                    used to, and she's starting to get used to telling stories, reading
                    stories on iPads.

  Researcher:       [46:30] I see. Do you have any recommendations for improving the
                    reading experience?

  Adult:            [46:36] Um, well one thing that I think for parents, is to give
                    four to five seconds before you...Because you get very anxious to
                    deliver the story.

  Researcher:       [46:47] Uh-huh.

  Adult:            [46:48] For us, I am from Brazil and we tell stories orally to kid,
                    to create the couple scenario. That means if the child is more
                    receptive, we are more active in the story telling.

  Researcher:       [47:00] Yeah.

  Adult:            [47:01] But in the Internet, in the electronic way of storytelling
                    there is a lot more for us to learn, and for us to read.

  Researcher:       [47:10] Yeah I can see that.

  Adult:            [47:10] So the child can get so much more active, and they need to
                    be humble and that's kind of slower and take lot more for them to
                    recuperate the lineage of the story.

  Researcher:       [47:22] Yeah.

  Adult:            [47:22] Because the story;s sequential..

  Researcher:       [47:23] Right.

  Adult:            [47:25] But the...

  Researcher:       [47:25] But she's allowed to make it non linear...

  Adult:            [47:28] Non sequential.

  Researcher:       [47:28] Yeah.

  Adult:            [47:29] It can be, as you saw, she went back and forth.

  Researcher:       [47:32] Yes, definitely

  Adult:            [47:33] And it's a much more simultaneous processing kind of
                    device.

  Researcher:       [47:37] Yeah.

  Adult:            [47:38] So we need to...

  Researcher:       [47:40] Yeah. I was struck how you were very, you seem very good at
                    patiently letting her drive while kind of being suggestive of what
                    she might do.

  Adult:            [47:50] I did many wrong things before. [laughs]

  Researcher:       [47:52] Because of the experience.

  Adult:            [laughs] [47:53] And I'm an older parent. So my oldest is 34, so I
                    have been telling stories for a long time.

  Researcher:       [48:02] Well, and thank you so much for doing it. I...so just to be
                    brief. Thanks again. Lots of adults read with kids ah, you know, on
                    Tablets and iPads, and we are looking to see how reading's
                    different with parents on an iPad or a Tablet then with physical
                    books.

                    [48:20] And we're hoping to use all the great reading behaviors
                    that we see in caregivers like you display, to create an
                    interactive character. That's one of the goals of this research. To
                    do some of the things like you're doing like asking some questions,
                    attracting her to do certain things. And so that...

  Child:            [48:38] Mama, that's enough.

  Adult:            [48:40] I know, it's one minute sweet heart. Um, so I think it's a
                    great idea. The last time I participated in a research here, I
                    signed up to receive [inaudible 0:48:49]

  Researcher:       [48:50] A what?

  Adult:            [48:51] ...so I'd love to.

  Researcher:       [48:52] You signed up to receive a what?

  Adult:            [48:54] All the research is goal.

  Researcher:       [48:55] Oh.

  Adult:            [48:56] Like when it gets published, and things.

  Researcher:       [48:58] Do we, do we have a way, do we have like a...See anything
                    like that for people who would be interested in...

  Adult:            [49:02] We can go there and call the girls and save their
                    [inaudible 0:49:04]

  Researcher:       [49:06] So let me write down my email address.

  Adult:            [49:08] All right. Cause I think that this is a very exciting
                    theme. I'm a school psychologist and [inaudible 0:49:14] since I
                    was 14.

  Researcher:       [49:17] Oh wow.

  Adult:            [49:18] So I am a mother. That's what I am.

  Child:            [inaudible 0:49:21] [49:21] You need to come.

                    [49:23] [crosstalk]

  Adult:            [49:29] ...The old characters they ask for the child to either
                    witness their drama or help. So in terms of the interactive
                    stories, you can either...The child can be in control of the
                    universe like, or it's not a. Maybe it's not a story like the angry
                    birds, but if it's a story that it's very important that right at
                    the beginning to make connections here.

  Researcher:       [49:56] Yeah.

  Adult:            [49:57] That's one of the best things in this story which is help
                    me keep my little parts of the...The visual still needs to be a
                    little more perfected, but the child can help to hatch [inaudible
                    0:50:09] .

  Researcher:       [50:10] Yeah.

  Adult:            [50:10] And that is amazing. i think bringing that character to
                    life, being able to help somebody through the [inaudible 0:50:18]
                    of a story, that would be a very important ingredient in [inaudible
                    0:50:24] for the 21st century.

  Researcher:       [50:26] Nice. That's great.

  Adult:            [50:28] Like that The middle...To kids [inaudible 0:50:31] get lost
                    in the forest..

                    [50:32] [crosstalk]

  Adult:            [50:33] ...They go to the chocolate and [inaudible 0:50:35] gets
                    them. Can you imagine a child being able to help, to buy the two
                    [inaudible 0:50:40] , and avoid the wolves, so this is a mix of
                    old, very brainy based. You know, that's the [inaudible 0:50:49]
                    system [inaudible 0:50:50] iPad.

  Researcher:       [50:54] Very cool.

  Adult:            [50:54] If it shouldn't be naming iPad...

  Researcher:       [laughs] Tablet [inaudible 0:50:56] [50:56] experience.

  Adult:            [50:58] Thank you so much and good luck.

  Researcher:       [50:59] Thank you.

  Researcher:       [51:00] This is [inaudible 0:51:00] contact me and I can give you
                    more literature that you wanna [inaudible 0:51:04] and stuff.

  Adult:            [51:04] I'd love to.

  Researcher:       [51:05] Yeah, please do. Thank you for your time.

  Adult:            [51:07] Good luck guys.

  Researcher:       [51:08] Thank you, thank you Cecilia. How do you say thank you in
                    Portuguese?

  Adult:            [51:11] [foreign language

  Researcher:       [51:12] Foreign language] Cecilia.

  Researcher:       [51:13] Did you get a sticker?

  Adult:            [51:14] No.

  Researcher:       [51:15] Uh-oh. She needs to get a sticker.

  Adult:            [inaudible 0:51:16] guess. Let me get [inaudible 0:51:19] to do
                    [inaudible 0:51:19] [51:17] instead.

  Researcher:       [51:21] Are you gonna pull it out? See you want that one? OK. There
                    you go. On your hand or [inaudible 0:51:28] . Do you wanna...Do you
                    wanna put it on your shirt? Here, it's yours to put on. There you
                    go. All right.

  Adult:            [51:36] Wow! Thank you.

  Research:         [51:37] Well done. Thank you.

  Child:            [inaudible 0:51:39] [51:38]

  Adult:            [51:40] Are the girls tired?

  Research:         [51:45] Comfortable? [laughs]

  Child 1:          [51:48] Really [inaudible 0:51:48] the blanket.

  Research:         [51:49] So, my name's Brad. I, I met Manny here. Manny, who, who'd
                    you bring here with you?

  Manny:            [51:54] A guardian

  Research:         [51:57] A guardian. [laughs]

  Research:         [52:01] Well, I'm, I'm pleased to meet you guys. And, I, I'm a
                    researcher from MIT and I'm studying how children and adults read
                    together with tablets. And here's a tablet. Have you seen tablets
                    before, like iPads?

  Child:            [52:17] Yeah.

  Researcher:       [52:18] OK. And you can take that. And I'm going to be asking you
                    guys to read a story together. And you should feel free to talk
                    about what's on the screen. You can tap or swipe at any of the
                    pictures or on the words. And, when you're done reading, if you're
                    tired or you're bored you can stop at any time. Just let me know.
                    Are you guys ready?

  Adult:            [52:41] Yup. So why don't you do the reading.

  Child:            [52:44] Tap. Tap. Tap. Help me! Help me! Help me be free. Tell me,
                    tell me what to do you see.

  Adult:            [53:09] What do you see.

  Child:            [53:11] What do you see.

  Adult:            [53:13] Do you see.

  Child:            [53:15] I see. You are a baby duck, you're name is baby D. I am a
                    baby duck. I am a baby D.

  Tablet:           [53:28] Baby D. Baby D. Baby D. Duck. Duck. Duck.

  Child:            [53:40] I am a baby...

  Tablet:           [53:41] Duck.

  Child:            [53:43] ...What kind of color are...What kind of color can I be?

  Adult:            [53:50] What.

  Child:            [53:53] What color can I be? Well, wait. Go back.

  Adult:            [53:55] Maybe we can do something with this.

  Child:            [53:56] All right.

  Tablet:           [53:58] Duck. Duck.

  Child:            [54:07] Go to the top.

  Tablet:           [54:11] T. T. White.

  Child:            [54:15] Rub. Rub. Rub Red, yellow, blue, what color are you?

  Tablet:           [54:21] T.

  Child:            [54:22] I want to be red.

  Tablet:           [54:26] Orange.

  Adult:            [54:28] Cool.

  Tablet:           [54:27] Red. Yellow. Orange.

  Adult:            [54:30] Oh, so it mixes them. Oh, do you want to do this one? Do
                    you want to do yellow?

  Tablet:           [54:46] Green.

  Adult:            [54:49] That's yellow and blue.

  Tablet:           [54:52] Green.

  Child:            [55:04] Orange, yeah. Now, I am orange. I am an orange duck, where
                    can I go?

  Tablet:           [55:15] Duck.

  Child:            [55:19] Go to orange frog. He will find a way.

  Adult:            [55:26] Wait, go there.

  Child:            [55:29] Orange frog, take me to play. I want to play. What can
                    ducks do?

  Tablet:           [55:42] Splash.

  Child:            [55:43] Swim, splash, dive, run, baby D has to...

  Adult:            [55:49] ...Go have fun.

  Child:            [55:51] ...go have fun.

  Adult:            [55:49] Wait, wait. Let's see what happens, when you go there.
                    Swim. Splash.

  Tablet:           [55:52] Splash. Swim.

  Adult:            [56:06] Can you make him dive?

  Tablet:           [56:08] Splash. Splash. Splash.

  Adult:            [56:18] Let's see, if you hit that, what happens?

  Tablet:           [56:21] Dive.

  Adult:            [56:23] Hit one of those.

  Tablet:           [56:34] Swim.

  Adult:            [56:38] No, not the button. Here. Maybe he has to be up here to
                    run.

  Tablet:           [56:43] Splash. [splash]

  Adult:            [56:46] No, put him...put him on the edge, and then hit "Run." Oh,
                    OK.

  Child:            [57:11] I am done. That was fun. I am hungry. What do ducks eat?
                    Ducks eat bugs. One bug, two bug, three bug, four bugs. Eat three
                    bugs. Do you want them? Oh, wait...Wait, there's four bugs.

  Adult:            [57:47] So...Oh...

  Child:            [58:08] OK, Baby Dee. My eyes feel funny. Why is that? Are you
                    tired, Baby Dee? You are tired, Baby Dee. It was your first big
                    day. Let's tuck in bed. Lay down your head. I am a duck, an orange
                    duck. Can I play?

  Adult:            [58:45] Play.

  Child:            [58:47] Can he play? Can play and run all day. I eat bugs, two,
                    three, four. How can I sleep? Just one thing more. OK, Baby Dee. We
                    will sing you a song. [inaudible 0:59:08] will all sing along. Good
                    night, baby duck. Wait. Good night, baby duck. Good night baby
                    duck.

  Adult:            [inaudible 0:59:37] [59:37]

  Child:            [59:38] Yeah.

  Researcher:       [59:39] Thank you.

  Child:            [59:52] Go to sleep, Baby Dee. Not a peep, Baby Dee. Good night,
                    little one, till a new day comes. The end. Thanks.

  Researcher:       [60:06] Thank you so much.

  Adult:            [60:07] You're welcome. Thank you, that was fun.

  Researcher:       [60:09] May I ask you guys a couple of questions before you go?

  Adult:            [60:12] Sure.

  Researcher:       [60:13] All right so; first, I've got questions for Manny. What did
                    you like best about the story?

  Child:            [60:19] I liked, the best part, you got to do the stuff and make
                    him do stuff.

  Researcher:       [60:25] OK. What did you like least about it?

  Child:            [60:29] Telling me to read.

  Researcher:       [laughs] [60:31] OK. How often do you read books, at home or at
                    school?

  Child:            [60:39] Not often.

  Researcher:       [60:44] Would you say, like, once a day?

  Child:            [60:48] Twice a day.

  Researcher:       [60:48] A couple times? Twice a day? OK. And do you usually read by
                    yourself, or with other people?

  Child:            [60:55] Um, both.

  Researcher:       [60:56] Both OK. And, how old are you?

  Child:            [60:59] Eight.

  Researcher:       [61:00] Eight years old, OK. And I've got a couple questions for
                    you. What did you think about the story -- your total honest
                    opinion?

  Adult:            [61:08] Oh, it was really cute.

  Researcher:       [61:09] OK. OK, and do you have any suggestions for us, to improve
                    the reading experience?

  Adult:            [61:16] Um...well, I don't know if we missed some of the
                    interactive stuff. We...did we?

  Researcher:       [61:21] I don't know.

  Adult:            [61:21] Oh.

  Researcher:       [61:22] Yeah, I'm not sure.

  Adult:            [61:23] Um, but it's...

  Researcher:       [61:24] There's usually some things that... There's a lot of things
                    to explore, so there are things you could have done. But...

  Adult:            [61:28] Yeah.

  Researcher:       [61:29] I don't know if I would say missed.

  Adult:            [61:31] He's very intuitive about playing, like touch screen games
                    and things. So he probably knew what there was to do better than I
                    did.

  Researcher:       [61:42] I see.

  Adult:            [61:42] But it seemed like sometimes there could have been maybe a
                    [inaudible 1:01:45] couple of activities that...

  Researcher:       [61:48] I see.

  Adult:            [61:49] ... could've done.

  Researcher:       [61:49] On some of the screens it seemed like there wasn't quite
                    enough to do?

  Adult:            [61:52] Yeah.

  Researcher:       [61:53] OK.

  Adult:            [61:54] On some of them there was a lot to do and I just... He
                    would just go right on so I don't know if there was more or not.

  Researcher:       [61:59] Yeah. Yeah, yeah, that's good feedback.

  Adult:            [inaudible 1:02:01] [62:01] and there wasn't.

  Researcher:       [62:03] OK. Yeah. Yeah, I remember that with the mirror. You guys
                    were trying to do something...

  Adult:            [62:08] Yeah.

  Researcher:       [62:08] ... and it didn't actually do anything. Yeah. OK. Well, so
                    just to debrief, really quick. Uh, so uh, if you would like a
                    sticker, we have stickers for you guys over here.

  Adult:            [62:19] Manny?

  Child:            [62:20] Yeah.

  Adult:            [62:20] Want a sticker?

  Child:            [62:21] Yeah.

  Researcher:       [62:24] Here you go. And here's information about the study. And
                    uh, basically what we're doing here is that we want to see how, how
                    parents read on tablets differently than they would read the
                    physical books, and so we're observing parents read with their kids
                    on tablets.

                    [62:40] And one of the things that we're hoping to do with all
                    this, these reading behaviors we're observing is create a character
                    that's in the book, or even possibly like a robot or something that
                    uh, can do some of the things that parents are doing so well. For
                    people who, you know, maybe they work uh, jobs and so the hours
                    don't line up with reading to the kids, or just to let their kids
                    read on their own a little bit more.

                    [63:07] Uh, we're hoping to kind of do some of the things that,
                    that, that caregivers do so well. And um, so yeah, so if you have
                    any like, follow-up questions I think our information's on the
                    pamphlet there. And...

  Adult:            [63:17] It looks pretty good.

  Researcher:       [63:18] Feel free to contact us.

                    [63:19] Parent OK.

  Researcher:       [63:20] Thank you so much.

  Adult:            [63:21] Good luck.

  Researcher:       [63:21] We really appreciate your time. It was super helpful. Thank
                    you.

  Adult:            [63:23] You're welcome. Good luck. It's a great thing you're doing.

  Researcher:       [63:27] Thank you.

  Researcher:       [63:30] We probably won't be able to start on another one. Shall we
                    shut it down?

  Researcher:       [63:34] Shut it down.



Transcription by CastingWords
 